…
This is informative because it shows us that there are a few tanks with
very few individuals. Model lmm5.2 is essentially creating a linear
regression for each tank, then pooling all those regressions to get the
overall regression for our fixed effect. But tank 26 only has two
individuals! We can verify this if we calculate how many individuals are
in each Tank.

``` r
RxP.clean %>% 
  group_by(Tank.Unique) %>% 
  summarize(Obs = length(Tank.Unique))
```

    ## # A tibble: 78 x 2
    ##    Tank.Unique   Obs
    ##          <int> <int>
    ##  1           1    47
    ##  2           2    42
    ##  3           3    45
    ##  4           4    26
    ##  5           5    40
    ##  6           6     8
    ##  7           7    43
    ##  8           8    39
    ##  9           9    23
    ## 10          10    44
    ## # … with 68 more rows
…
