…
``` r
RxP.clean %>%
  group_by(Tank.Unique) %>%
  summarize(Resorb.days.mean = mean(Resorb.days),
            Resorb.days.SD = sd(Resorb.days),
            Resorb.days.N = length(Resorb.days)) %>%
  mutate(Resorb.days.SE = Resorb.days.SD/sqrt(Resorb.days.N))
```

    ## # A tibble: 78 x 5
    ##    Tank.Unique Resorb.days.mean Resorb.days.SD Resorb.days.N Resorb.days.SE
    ##          <int>            <dbl>          <dbl>         <int>          <dbl>
    ##  1           1             3.49          1.12             47          0.163
    ##  2           2             3.79          1.30             42          0.200
    ##  3           3             3.51          0.843            45          0.126
    ##  4           4             3.65          1.23             26          0.241
    ##  5           5             4.22          1.61             40          0.254
    ##  6           6             5             1.20              8          0.423
    ##  7           7             4.09          0.947            43          0.144
    ##  8           8             4.82          1.12             39          0.179
    ##  9           9             4.22          1.17             23          0.243
    ## 10          10             3.70          1.02             44          0.154
    ## # … with 68 more rows
…
